Project 1
…
# Joining
library(ggplot2)
library(magrittr)
library(dplyr)

merged <- dune %>% left_join(grass)

I chose a left join in order to keep the dune dataframe on the left and add the grass dataframe to the right where there were matches. They were joined by Plant, Month, Day, Year, Treatment, Plot, and Quadrat. No cases were dropped since each dataframe had the same number of plants and had data for each characteristic. The joined dataset was called “merged”. I joined the datasets without tidying them because I could not figure out how to get the joined dataset tidy. However, the next step shows how I tidyied my untidyied joined dataset.

# Tidying
library(tidyverse)

merged %>% pivot_longer(cols = c("D_Height":"G_Y"))

## # A tibble: 2,922 x 9
##    Plant Month   Day  Year Treatment  Plot Quadrat name     value
##    <int> <int> <int> <int>     <int> <int>   <int> <chr>    <dbl>
##  1     1     7    18  2019         1     2       7 D_Height   0  
##  2     1     7    18  2019         1     2       7 D_X        0  
##  3     1     7    18  2019         1     2       7 D_Y        0  
##  4     1     7    18  2019         1     2       7 G_Height   6.8
##  5     1     7    18  2019         1     2       7 G_X        3.7
##  6     1     7    18  2019         1     2       7 G_Y        4  
##  7     2     7    18  2019         1     2       7 D_Height   5  
##  8     2     7    18  2019         1     2       7 D_X       23  
##  9     2     7    18  2019         1     2       7 D_Y       38  
## 10     2     7    18  2019         1     2       7 G_Height   8  
## # … with 2,912 more rows
…
On my double-wide merged dataset, I used pivot_longer() to select double-wide columns containing the underscore (e.g D_Height). They were moved into one column called ‘name’, then separated into two columns Type (D,G) and Variable (Height, X, Y). Then pivot_wider() was used to make each variable its own column with values under it. The tidyied dataset was called “merged1”.

# Wrangling
iof <- merged1 %>% select(-Month, -Day, -Year, -Plot, -Quadrat)
iof1 <- iof %>% mutate(Area = pi * (X/2) * (Y/2))
iof1 %>% summarize_all(n_distinct)

## # A tibble: 1 x 7
##   Plant Treatment  Type Height     X     Y  Area
##   <int>     <int> <int>  <int> <int> <int> <int>
## 1   487         5     2    134   305   341   837

iof1 %>% filter(Type == "D") %>% arrange(desc(Area))

## # A tibble: 487 x 7
##    Plant Treatment Type  Height     X     Y   Area
##    <int>     <int> <chr>  <dbl> <dbl> <dbl>  <dbl>
##  1   457         5 D        7.7   113  125  11094.
##  2   270         3 D        4.6   100  124   9739.
##  3   272         3 D       10      93  116.  8458.
##  4   401         4 D        5.5    78  125   7658.
##  5   139         2 D        6.5    96   97   7314.
##  6   284         3 D        8.2    90  100   7069.
##  7   461         5 D        4      82  106   6827.
##  8   403         4 D        7      78  111   6800.
##  9   381         4 D        4      68  124   6622.
## 10   394         4 D        9      85   97   6476.
## # … with 477 more rows

iof1 %>% filter(Type == "G") %>% arrange(desc(Area))

## # A tibble: 487 x 7
##    Plant Treatment Type  Height     X     Y   Area
##    <int>     <int> <chr>  <dbl> <dbl> <dbl>  <dbl>
##  1   457         5 G       19   108     125 10603.
##  2   272         3 G       15    87     117  7995.
##  3   270         3 G       19.5  81     124  7889.
##  4   139         2 G       13.5  94      95  7014.
##  5   401         4 G       13.6  72     115  6503.
##  6   403         4 G       11    74     107  6219.
##  7   381         4 G        8.2  66     119  6169.
##  8   461         5 G       18    76.5   100  6008.
##  9   276         3 G       13    80      91  5718.
## 10   209         2 G       13    73.3    95  5469.
## # … with 477 more rows
…
